[
{ "_id" : { "$oid" : "5ff5d1414455d194baee85a5" }, "carnumber" : "1111222233334441", "active" : "0" },
{ "_id" : { "$oid" : "5ff5d1a34455d194baee85a6" }, "carnumber" : "1111222233334442", "active" : "1" },
{ "_id" : { "$oid" : "5ff5d1bb4455d194baee85a7" }, "cardnumeber" : "1111222233334443", "active" : "0" },
{ "_id" : { "$oid" : "5ff5d1d94455d194baee85a8" }, "carnumber" : "1111222233334444", "active" : "1" },
{ "_id" : { "$oid" : "5ff5d1f14455d194baee85a9" }, "cardnumber" : "1111222233334445", "active" : "0" },
{ "_id" : { "$oid" : "5ff5d2074455d194baee85aa" }, "cardnumber" : "1111222233334446", "active" : "1" },
{ "_id" : { "$oid" : "5ff5d21c4455d194baee85ab" }, "cardnumber" : "1111222233334447", "active" : "0" }
]
