<?xml version="1.0" encoding="UTF-8"?>
<session version="1.0">
<refactoring comment="Rename type &apos;com.api.cards.repo.ICard&apos; to &apos;ICardRepo&apos;&#x0D;&#x0A;- Original project: &apos;Cards&apos;&#x0D;&#x0A;- Original element: &apos;com.api.cards.repo.ICard&apos;&#x0D;&#x0A;- Renamed element: &apos;com.api.cards.repo.ICardRepo&apos;&#x0D;&#x0A;- Update references to refactored element&#x0D;&#x0A;- Update textual occurrences in comments and strings" description="Rename type &apos;ICard&apos;" flags="589830" id="org.eclipse.jdt.ui.rename.type" input="/src\/main\/java=/optional=/true=/=/maven.pomderived=/true=/&lt;com.api.cards.repo{ICard.java[ICard" matchStrategy="1" name="ICardRepo" qualified="false" references="true" similarDeclarations="false" stamp="1609943592813" textual="false" version="1.0"/>
</session>